<svg xmlns="http://www.w3.org/2000/svg" viewBox="596.5 10.5 21.94 21.94">
  <defs>
    <style>
      .cls-1 {
        fill: #fff;
      }
    </style>
  </defs>
  <path id="path" class="cls-1" d="M50.072,64.491h-1l-.376-.376A7.847,7.847,0,0,0,50.7,58.849,8.149,8.149,0,1,0,42.549,67a7.847,7.847,0,0,0,5.266-2.006l.376.376v1L54.46,72.64,56.34,70.76Zm-7.522,0a5.642,5.642,0,1,1,5.642-5.642A5.618,5.618,0,0,1,42.549,64.491Z" transform="translate(562.1 -40.2)"/>
</svg>
