<svg id="Group_2508" data-name="Group 2508" xmlns="http://www.w3.org/2000/svg" viewBox="-23804 -1550 15.514 14.665">
  <defs>
    <style>
      .cls-1 {
        fill: #c8102e;
      }
    </style>
  </defs>
  <path id="Path_1130" data-name="Path 1130" class="cls-1" d="M567.781,482.1H553.116V483.9h14.665Z" transform="translate(-23313.104 -2103.116) rotate(90)"/>
  <path id="Path_1131" data-name="Path 1131" class="cls-1" d="M568.629,482.1H553.116V483.9h15.513Z" transform="translate(-24357.115 -2025.667)"/>
</svg>
