<svg xmlns="http://www.w3.org/2000/svg" xmlns:xlink="http://www.w3.org/1999/xlink" viewBox="-4097 -5655 174.084 64">
  <defs>
    <style>
      .cls-1 {
        fill: #012639;
      }

      .cls-2 {
        fill: #c7102e;
      }

      .cls-3 {
        clip-path: url(#clip-path);
      }

      .cls-4, .cls-5 {
        fill: #fff;
      }

      .cls-5 {
        font-size: 6px;
        font-family: Helvetica-Light, Helvetica;
        font-weight: 300;
      }
    </style>
    <clipPath id="clip-path">
      <rect id="Rectangle_1347" data-name="Rectangle 1347" width="174.084" height="64"/>
    </clipPath>
  </defs>
  <g id="MapR_logo" transform="translate(-4097 -5655)">
    <path id="Path_1071" data-name="Path 1071" class="cls-1" d="M34.1,113.4h0Z" transform="translate(-15.302 -50.888)"/>
    <rect id="Rectangle_1346" data-name="Rectangle 1346" class="cls-2" width="174.084" height="64"/>
    <g id="Group_2306" data-name="Group 2306">
      <g id="Group_2305" data-name="Group 2305" class="cls-3">
        <path id="Path_1072" data-name="Path 1072" class="cls-4" d="M52.238,56.261,45.017,32.613c-.882-2.811-2.536-3.914-4.63-3.914a4.79,4.79,0,0,0-4.8,3.914L28.7,60.726h5.016l6.5-26.9h.22l7.276,23.649a4.726,4.726,0,0,0,4.575,3.583c1.874.055,3.693-1.1,4.52-3.583l7.332-23.649h.165l5.953,22.987A5.059,5.059,0,0,0,75.611,61a5.482,5.482,0,0,0,5.347-3.583l9.867-24.806,6.5,11.852H90.219V49.04h9.757l4.465,8.048C105.82,59.679,107.363,61,110.671,61c2.536,0,5.182-1.213,5.182-6.56V33.6h10.2c5.623,0,6.78,2.977,6.78,5.292s-1.158,5.292-6.78,5.292h-4.906v4.575h4.575c8.875,0,12.183-3.969,12.183-9.867,0-5.953-3.363-9.867-12.072-9.867H115.8c-3.969,0-4.906,1.268-4.906,4.575V58.466h-.165L96.283,32.613c-1.378-2.591-2.756-3.8-5.182-3.914a5.536,5.536,0,0,0-5.292,3.914L75.722,58.466h-.11L69,32.613c-.717-2.756-2.536-3.914-4.631-3.914s-3.8,1.1-4.8,3.914L52.4,56.261ZM157.913,33.6c5.623,0,6.78,2.977,6.78,5.292s-1.158,5.292-6.78,5.292h-15.1V60.671h4.961V48.764h8.875l8.544,11.907h5.953L162.268,48.1a8.927,8.927,0,0,0,7.5-9.206c0-5.953-3.363-9.867-12.127-9.867H143.8a2.292,2.292,0,1,0,0,4.575h14.112Z" transform="translate(-12.879 -12.878)"/>
      </g>
    </g>
    <text id="_" data-name="®" class="cls-5" transform="translate(158.576 49.743)"><tspan x="0" y="0">®</tspan></text>
  </g>
</svg>
